%YAML 1.1
%TAG !u! tag:unity3d.com,2011:
--- !u!1045 &1
EditorBuildSettings:
  m_ObjectHideFlags: 0
  serializedVersion: 2
  m_Scenes:
  - enabled: 1
    path: Assets/Tests/VariablesTest/VariableTest.unity
    guid: f691dfaa59c902648af3a4266729382c
  m_configObjects: {}
