%YAML 1.1
%TAG !u! tag:unity3d.com,2011:
--- !u!114 &11400000
MonoBehaviour:
  m_ObjectHideFlags: 0
  m_CorrespondingSourceObject: {fileID: 0}
  m_PrefabInstance: {fileID: 0}
  m_PrefabAsset: {fileID: 0}
  m_GameObject: {fileID: 0}
  m_Enabled: 1
  m_EditorHideFlags: 0
  m_Script: {fileID: 11500000, guid: 6b96e524a79df3a47a4e9274b8e6b46d, type: 3}
  m_Name: String 1
  m_EditorClassIdentifier: 
  realtimeValue: TEST 1234
  value: 'TEST 1234


    ABC


    DEF


    GHI


    TEST 4321'
